%YAML 1.1
%TAG !u! tag:unity3d.com,2011:
--- !u!1045 &1
EditorBuildSettings:
  m_ObjectHideFlags: 0
  serializedVersion: 2
  m_Scenes:
  - enabled: 1
    path: Assets/Kai/_Scene/MainMenu.unity
    guid: 91a49f373e4a28f4d9fe6d14aa8f46f8
  - enabled: 1
    path: Assets/Vic/Scenes/VicTest.unity
    guid: 0dabe61832f9b574fabc30842020369c
  - enabled: 1
    path: Assets/Kai/_Scene/WinScene.unity
    guid: c5f0a57f837748a4f9a9e78a1540ebf4
  m_configObjects: {}
